{
  "data": [
    {
      "id": 3502,
      "goods_sku_id": 3558,
      "name": "5-22\u9999\u74dc",
      "goods_material_name": "",
      "goods_cover_image": "",
      "goods_sku_encoding": "QW20190523",
      "is_presale": 1,
      "base_unit": "kg",
      "sale_unit": "\u4efd",
      "base_sale_rate": "1",
      "is_online": 1,
      "source": 1,
      "complete_status": 1,
      "trade_price": "15",
      "original_price": "20",
      "describe": "",
      "usable_stock": 179,
      "sale_count": 3,
      "goods_sku_code": "SKU1521493717",
      "goods_category_name": "\u4f11\u95f2\u96f6\u98df2",
      "goods_material_category_name": "",
      "goods_category_id": 20,
      "purchase_unit": "\u4efd",
      "base_purchase_rate": "1.00",
      "supplier_name": "\u8d5e\u64ad",
      "goods_video_url": ""
    },
    {
      "id": 3501,
      "goods_sku_id": 3557,
      "name": "5-22\u54c8\u5bc6\u74dc",
      "goods_material_name": "",
      "goods_cover_image": "",
      "goods_sku_encoding": "QW20190522",
      "is_presale": 1,
      "base_unit": "kg",
      "sale_unit": "\u4efd",
      "base_sale_rate": "1",
      "is_online": 1,
      "source": 1,
      "complete_status": 1,
      "trade_price": "20",
      "original_price": "25",
      "describe": "",
      "usable_stock": 178,
      "sale_count": 4,
      "goods_sku_code": "SKU1521482219",
      "goods_category_name": "\u4f11\u95f2\u96f6\u98df2",
      "goods_material_category_name": "",
      "goods_category_id": 20,
      "purchase_unit": "\u4efd",
      "base_purchase_rate": "1.00",
      "supplier_name": "\u8d5e\u64ad",
      "goods_video_url": ""
    },
    {
      "id": 3500,
      "goods_sku_id": 3556,
      "name": "\u6c34\u679c\u6c34\u679c",
      "goods_material_name": "",
      "goods_cover_image":
        "http://social-shopping-api-1254297111.picgz.myqcloud.com/corp1%2F2019%2F05%2F21%2F1558445812562-VCG21gic19307404.jpg",
      "goods_sku_encoding": "sdf4564361",
      "is_presale": 1,
      "base_unit": "\u65a4",
      "sale_unit": "\u65a4",
      "base_sale_rate": "1",
      "is_online": 1,
      "source": 1,
      "complete_status": 1,
      "trade_price": "5",
      "original_price": "10",
      "describe": "",
      "usable_stock": 204,
      "sale_count": 1,
      "goods_sku_code": "SKU2138272380",
      "goods_category_name": "\u751f\u9c9c\u679c\u852c / \u6c34\u679c\u7c7b",
      "goods_material_category_name": "",
      "goods_category_id": 2,
      "purchase_unit": "\u65a4",
      "base_purchase_rate": "1.00",
      "supplier_name": "\u8d5e\u64ad",
      "goods_video_url": ""
    },
    {
      "id": 3496,
      "goods_sku_id": 3553,
      "name": "\u957f\u5d0e\u86cb\u7cd536g*10\u5305/\u4efd",
      "goods_material_name": "",
      "goods_cover_image": "",
      "goods_sku_encoding": "sd234",
      "is_presale": 1,
      "base_unit": "\u4efd",
      "sale_unit": "\u5305",
      "base_sale_rate": "1",
      "is_online": 1,
      "source": 1,
      "complete_status": 1,
      "trade_price": "17.8",
      "original_price": "17.8",
      "describe": "",
      "usable_stock": 0,
      "sale_count": 0,
      "goods_sku_code": "SKU1854108034",
      "goods_category_name": "\u8f7b\u98df\u7cd5\u70b9",
      "goods_material_category_name": "",
      "goods_category_id": 50,
      "purchase_unit": "\u4efd",
      "base_purchase_rate": "1.00",
      "supplier_name": "\u5e7f\u5dde\u7eff\u68ee\u6797\u519c\u4e1a\u53d1\u5c55\u6709\u9650\u516c\u53f8",
      "goods_video_url": ""
    },
    {
      "id": 3495,
      "goods_sku_id": 3552,
      "name": "22222aaa",
      "goods_material_name": "",
      "goods_cover_image": "http://social-shopping-api-1254297111.picgz.myqcloud.com/1/2019/04/28/155644178396839.png",
      "goods_sku_encoding": "sku7411520000",
      "is_presale": 1,
      "base_unit": "\u7b52",
      "sale_unit": "\u7b52",
      "base_sale_rate": "1",
      "is_online": 1,
      "source": 1,
      "complete_status": 1,
      "trade_price": "1",
      "original_price": "1",
      "describe": "22fadsfdas",
      "usable_stock": 200,
      "sale_count": 1,
      "goods_sku_code": "SKU1656485449",
      "goods_category_name": "\u4f11\u95f2\u96f6\u98df2 / \u81a8\u5316\u98df\u54c1",
      "goods_material_category_name": "",
      "goods_category_id": 46,
      "purchase_unit": "\u65a4",
      "base_purchase_rate": "1.00",
      "supplier_name": "\u6c5f\u8bb0\u6279\u53d1\u516c\u53f8",
      "goods_video_url": ""
    },
    {
      "id": 3494,
      "goods_sku_id": 3551,
      "name": "ce45454545",
      "goods_material_name": "",
      "goods_cover_image": "http://social-shopping-api-1254297111.picgz.myqcloud.com/1/2019/04/28/155644146870569.png",
      "goods_sku_encoding": "sku78784522233",
      "is_presale": 1,
      "base_unit": "\u7b52",
      "sale_unit": "\u7b52",
      "base_sale_rate": "1",
      "is_online": 1,
      "source": 1,
      "complete_status": 1,
      "trade_price": "33",
      "original_price": "55",
      "describe": "aaffdfd",
      "usable_stock": 199,
      "sale_count": 1,
      "goods_sku_code": "SKU1651422258",
      "goods_category_name": "\u751f\u9c9c\u679c\u852c / \u6c34\u679c\u7c7b",
      "goods_material_category_name": "",
      "goods_category_id": 2,
      "purchase_unit": "\u7b52",
      "base_purchase_rate": "22.00",
      "supplier_name": "\u8d5e\u64ad",
      "goods_video_url": ""
    },
    {
      "id": 3493,
      "goods_sku_id": 3550,
      "name": "ce8899777",
      "goods_material_name": "",
      "goods_cover_image": "http://social-shopping-api-1254297111.picgz.myqcloud.com/1/2019/04/28/155644103321044.png",
      "goods_sku_encoding": "sku4546kkmm",
      "is_presale": 1,
      "base_unit": "\u7b52",
      "sale_unit": "\u7b52",
      "base_sale_rate": "1",
      "is_online": 1,
      "source": 1,
      "complete_status": 1,
      "trade_price": "1",
      "original_price": "1",
      "describe": "22222",
      "usable_stock": 194,
      "sale_count": 6,
      "goods_sku_code": "SKU1644348898",
      "goods_category_name": "\u4f11\u95f2\u96f6\u98df2 / 32",
      "goods_material_category_name": "",
      "goods_category_id": 47,
      "purchase_unit": "\u65a4",
      "base_purchase_rate": "1.00",
      "supplier_name": "\u8d5e\u64ad",
      "goods_video_url": ""
    }
  ],
  "links": {
    "first": "http://social-shopping-api.jerryf.cn/social-shopping/api/backend/goods-manage/goods?page=1",
    "last": "http://social-shopping-api.jerryf.cn/social-shopping/api/backend/goods-manage/goods?page=30",
    "prev": "http://social-shopping-api.jerryf.cn/social-shopping/api/backend/goods-manage/goods?page=1",
    "next": "http://social-shopping-api.jerryf.cn/social-shopping/api/backend/goods-manage/goods?page=3"
  },
  "meta": {
    "current_page": 2,
    "from": 8,
    "last_page": 30,
    "path": "http://social-shopping-api.jerryf.cn/social-shopping/api/backend/goods-manage/goods",
    "per_page": "7",
    "to": 14,
    "total": 208
  },
  "status": "success",
  "status_code": 200,
  "error": 0,
  "code": 0
}
